# Fdb version 3
["bibtex proyecto"] 1598476068 "proyecto.aux" "proyecto.bbl" "proyecto" 1598476242
  "/usr/share/texlive/texmf-dist/bibtex/bst/base/plain.bst" 1480098433 20613 bd3fbfa9f64872b81ac57a0dd2ed855f ""
  "bibliografia/bibliografia.bib" 1566457324 5056 92fdb9539caae97c04cfea02e4d2fc24 ""
  "proyecto.aux" 1598476233 27840 cba012a2fb8064b888f811e5dd232d41 ""
  "proyecto.bcf" 0 -1 0 ""
  (generated)
  "proyecto.blg"
  "proyecto.bbl"
["pdflatex"] 1598476231 "proyecto.tex" "proyecto.pdf" "proyecto" 1598476242
  "/etc/texmf/web2c/texmf.cnf" 1591277516 475 c0e671620eb5563b2130f56340a5fde8 ""
  "/usr/share/texlive/texmf-dist/fonts/enc/dvips/libertine/lbtn_25tcsq.enc" 1490133665 2921 8ca0eb0831f9bc5da080d3697cfe67bf ""
  "/usr/share/texlive/texmf-dist/fonts/enc/dvips/libertine/lbtn_76gpa5.enc" 1490133665 2933 9ad527ce78d7c5fa0a642dead095f172 ""
  "/usr/share/texlive/texmf-dist/fonts/enc/dvips/libertine/lbtn_7grukw.enc" 1490133665 2934 a4a9158faed2e9e89c771b4e3b7fc12f ""
  "/usr/share/texlive/texmf-dist/fonts/enc/dvips/libertine/lbtn_jtta5h.enc" 1490133665 3288 24b998cbd2e52bbe04beca3f8371dd27 ""
  "/usr/share/texlive/texmf-dist/fonts/enc/dvips/libertine/lbtn_ki75ao.enc" 1490133665 2943 6327ae0d29530d8ab185a235635acf5b ""
  "/usr/share/texlive/texmf-dist/fonts/enc/dvips/libertine/lbtn_naooyc.enc" 1490133665 3357 5261ce65ba03aef9faf6135657b9abb6 ""
  "/usr/share/texlive/texmf-dist/fonts/enc/dvips/libertine/lbtn_ncsllp.enc" 1490133665 3288 25b5d43be7be8cba51d85b642598b3b0 ""
  "/usr/share/texlive/texmf-dist/fonts/enc/dvips/libertine/lbtn_nh77jq.enc" 1490133665 2933 8d808fcabf70c6c809bb14c283ece4da ""
  "/usr/share/texlive/texmf-dist/fonts/enc/dvips/libertine/lbtn_tlukpt.enc" 1490133665 3290 0718d0dcef5bedd9dfea757c4970837e ""
  "/usr/share/texlive/texmf-dist/fonts/enc/dvips/libertinust1math/libusBMR.enc" 1505510494 4128 9711ba1fff0e85897faac036165db660 ""
  "/usr/share/texlive/texmf-dist/fonts/enc/dvips/libertinust1math/libusEX.enc" 1480098668 4370 9a6960ad261c3b8505f8616a17a865d2 ""
  "/usr/share/texlive/texmf-dist/fonts/enc/dvips/libertinust1math/libusMI.enc" 1480098668 2466 b4c444f17020acc82bb4a3da32916aa7 ""
  "/usr/share/texlive/texmf-dist/fonts/enc/dvips/libertinust1math/libusMR.enc" 1505510494 3938 3d40f38bec9f4e4b4ae3762c5efe6293 ""
  "/usr/share/texlive/texmf-dist/fonts/enc/dvips/libertinust1math/libusSYM.enc" 1497047345 4334 5128a769a3d1e490c76c850b0f9997c9 ""
  "/usr/share/texlive/texmf-dist/fonts/map/fontname/texfonts.map" 1511824771 3332 103109f5612ad95229751940c61aada0 ""
  "/usr/share/texlive/texmf-dist/fonts/tfm/jknappen/ec/ecrm1095.tfm" 1480098696 3584 929cdff2b7a8c11bd4d49fd68cb0ae70 ""
  "/usr/share/texlive/texmf-dist/fonts/tfm/jknappen/ec/ectt0900.tfm" 1480098696 1536 ae7aab2f8a4bc9edfce2899f53ba88c3 ""
  "/usr/share/texlive/texmf-dist/fonts/tfm/jknappen/ec/ectt1095.tfm" 1480098696 1536 a988bfe554c1f79514bd46d13c3c64ce ""
  "/usr/share/texlive/texmf-dist/fonts/tfm/jknappen/ec/ectt1200.tfm" 1480098696 1536 487c9b46984a816c7ed238d0674595c7 ""
  "/usr/share/texlive/texmf-dist/fonts/tfm/public/amsfonts/symbols/msam10.tfm" 1480098698 916 f87d7c45f9c908e672703b83b72241a3 ""
  "/usr/share/texlive/texmf-dist/fonts/tfm/public/amsfonts/symbols/msam5.tfm" 1480098698 924 9904cf1d39e9767e7a3622f2a125a565 ""
  "/usr/share/texlive/texmf-dist/fonts/tfm/public/amsfonts/symbols/msam7.tfm" 1480098698 928 2dc8d444221b7a635bb58038579b861a ""
  "/usr/share/texlive/texmf-dist/fonts/tfm/public/amsfonts/symbols/msbm10.tfm" 1480098698 908 2921f8a10601f252058503cc6570e581 ""
  "/usr/share/texlive/texmf-dist/fonts/tfm/public/amsfonts/symbols/msbm5.tfm" 1480098698 940 75ac932a52f80982a9f8ea75d03a34cf ""
  "/usr/share/texlive/texmf-dist/fonts/tfm/public/amsfonts/symbols/msbm7.tfm" 1480098698 940 228d6584342e91276bf566bcf9716b83 ""
  "/usr/share/texlive/texmf-dist/fonts/tfm/public/cm/cmr10.tfm" 1480098701 1296 45809c5a464d5f32c8f98ba97c1bb47f ""
  "/usr/share/texlive/texmf-dist/fonts/tfm/public/cm/cmr9.tfm" 1480098701 1292 6b21b9c2c7bebb38aa2273f7ca0fb3af ""
  "/usr/share/texlive/texmf-dist/fonts/tfm/public/cm/cmtt10.tfm" 1480098701 768 1321e9409b4137d6fb428ac9dc956269 ""
  "/usr/share/texlive/texmf-dist/fonts/tfm/public/cm/cmtt12.tfm" 1480098701 772 9a936b7f5e2ff0557fce0f62822f0bbf ""
  "/usr/share/texlive/texmf-dist/fonts/tfm/public/cm/cmtt8.tfm" 1480098701 768 d7b9a2629a0c353102ad947dc9221d49 ""
  "/usr/share/texlive/texmf-dist/fonts/tfm/public/cm/cmtt9.tfm" 1480098701 764 c98a2af25c99b73a368cf7336e255190 ""
  "/usr/share/texlive/texmf-dist/fonts/tfm/public/fourier/fourier-alt.tfm" 1480098707 220 26d85b63a783b1f1fab5622acbd07990 ""
  "/usr/share/texlive/texmf-dist/fonts/tfm/public/fourier/fourier-bb.tfm" 1480098707 560 af53a501c08f2f2cbf74fa511e7dbc5c ""
  "/usr/share/texlive/texmf-dist/fonts/tfm/public/fourier/fourier-orns.tfm" 1480098707 636 5dc4c4a046347e5d996d971478eccc07 ""
  "/usr/share/texlive/texmf-dist/fonts/tfm/public/fourier/futmi.tfm" 1480098707 3908 134bee7e89e5ea037d022133b5d70a90 ""
  "/usr/share/texlive/texmf-dist/fonts/tfm/public/fourier/futmib.tfm" 1480098707 3896 2c87449e36859e9b234249b5f9a9de01 ""
  "/usr/share/texlive/texmf-dist/fonts/tfm/public/fourier/futrorn.tfm" 1480098707 668 03aa9a60c2eb55fc784ac0939c2c6da9 ""
  "/usr/share/texlive/texmf-dist/fonts/tfm/public/libertine/LinBiolinumT-tlf-t1--base.tfm" 1490133670 1744 9486ddc64e90094bbb83f53a83b0e415 ""
  "/usr/share/texlive/texmf-dist/fonts/tfm/public/libertine/LinBiolinumT-tlf-t1.tfm" 1490133670 19548 768852037f39958c435d71846b8877ea ""
  "/usr/share/texlive/texmf-dist/fonts/tfm/public/libertine/LinBiolinumTB-tlf-sc-t1--base.tfm" 1490133670 1732 7f40ade03fffd4382298f88e72c0eaa0 ""
  "/usr/share/texlive/texmf-dist/fonts/tfm/public/libertine/LinBiolinumTB-tlf-sc-t1.tfm" 1490133670 15500 ac957d6f0a1c909d63e3483bb8d37627 ""
  "/usr/share/texlive/texmf-dist/fonts/tfm/public/libertine/LinBiolinumTB-tlf-t1--base.tfm" 1490133670 1768 23aace73e6def3193d6e0453af90487b ""
  "/usr/share/texlive/texmf-dist/fonts/tfm/public/libertine/LinBiolinumTB-tlf-t1.tfm" 1490133670 19416 aedd2db224ad278ddf2c411f52d86014 ""
  "/usr/share/texlive/texmf-dist/fonts/tfm/public/libertine/LinBiolinumTBO-tlf-t1--base.tfm" 1480098712 1872 d8cdb3704d3614cf3a63047d70984770 ""
  "/usr/share/texlive/texmf-dist/fonts/tfm/public/libertine/LinBiolinumTBO-tlf-t1.tfm" 1480098712 19520 27acdd84c0ed6e397d1f617fc01c1462 ""
  "/usr/share/texlive/texmf-dist/fonts/tfm/public/libertine/LinLibertineT-tlf-sc-t1--base.tfm" 1490133670 1700 eb1903cb93ada6655f6ace5bcfb0a2dd ""
  "/usr/share/texlive/texmf-dist/fonts/tfm/public/libertine/LinLibertineT-tlf-sc-t1.tfm" 1490133670 15404 b4ba91f16bd331695200640fa8131f38 ""
  "/usr/share/texlive/texmf-dist/fonts/tfm/public/libertine/LinLibertineT-tlf-t1--base.tfm" 1490133670 1740 2943dd2ba1dcd3849599663c1d2693ef ""
  "/usr/share/texlive/texmf-dist/fonts/tfm/public/libertine/LinLibertineT-tlf-t1.tfm" 1490133670 19504 bdf9fb416f5a91bf56b1ccda887f5b91 ""
  "/usr/share/texlive/texmf-dist/fonts/tfm/public/libertine/LinLibertineT-tlf-ts1--base.tfm" 1490133670 1488 9b803beb26c181b228c4fde93d4398a3 ""
  "/usr/share/texlive/texmf-dist/fonts/tfm/public/libertine/LinLibertineT-tlf-ts1.tfm" 1490133670 1516 5e35377e77f0326136c4078d4c186a36 ""
  "/usr/share/texlive/texmf-dist/fonts/tfm/public/libertine/LinLibertineTB-tlf-sc-t1--base.tfm" 1490133670 1704 a9e562d5b5defb02250fc1e66f73bb76 ""
  "/usr/share/texlive/texmf-dist/fonts/tfm/public/libertine/LinLibertineTB-tlf-sc-t1.tfm" 1490133670 14844 d3897f3631ca179c9e67fb2d62219f0d ""
  "/usr/share/texlive/texmf-dist/fonts/tfm/public/libertine/LinLibertineTB-tlf-t1--base.tfm" 1490133670 1724 248b3a23a2f748bd3089e9d3118d991e ""
  "/usr/share/texlive/texmf-dist/fonts/tfm/public/libertine/LinLibertineTB-tlf-t1.tfm" 1490133670 19488 f569478ca339d9b5ad93b46bf7a470e2 ""
  "/usr/share/texlive/texmf-dist/fonts/tfm/public/libertine/LinLibertineTBI-tlf-t1--base.tfm" 1490133670 1972 082fb4d9a7249f8c5edd0b6bb698e45c ""
  "/usr/share/texlive/texmf-dist/fonts/tfm/public/libertine/LinLibertineTBI-tlf-t1.tfm" 1490133670 19968 b4a9cc6060f127f01fb8dfa129c63b24 ""
  "/usr/share/texlive/texmf-dist/fonts/tfm/public/libertine/LinLibertineTI-tlf-t1--base.tfm" 1490133670 1932 54655639067fe21ae3b23b77173351a5 ""
  "/usr/share/texlive/texmf-dist/fonts/tfm/public/libertine/LinLibertineTI-tlf-t1.tfm" 1490133670 19920 63bb3db95807ffe45b0900d104896325 ""
  "/usr/share/texlive/texmf-dist/fonts/tfm/public/libertinust1math/libertinust1-mathbb.tfm" 1505510494 736 3c082b26224989788f57c49be19721ee ""
  "/usr/share/texlive/texmf-dist/fonts/tfm/public/libertinust1math/libertinust1-mathex.tfm" 1497387664 1632 f38f8929586e2f834b805ec2839e89c5 ""
  "/usr/share/texlive/texmf-dist/fonts/tfm/public/libertinust1math/libertinust1-mathit-bold.tfm" 1497047345 3336 72f368fa050b78759cd50a2f02a2ad66 ""
  "/usr/share/texlive/texmf-dist/fonts/tfm/public/libertinust1math/libertinust1-mathit.tfm" 1497047345 5232 f7e6d00b63058ab42b448a4623796b4f ""
  "/usr/share/texlive/texmf-dist/fonts/tfm/public/libertinust1math/libertinust1-mathrm-bold.tfm" 1505510494 7988 928a23290ebee36ce94349949e40dab6 ""
  "/usr/share/texlive/texmf-dist/fonts/tfm/public/libertinust1math/libertinust1-mathrm.tfm" 1505510494 6000 56d8eb823a7ac797dfe12bf4f7cde161 ""
  "/usr/share/texlive/texmf-dist/fonts/tfm/public/libertinust1math/libertinust1-mathsfrm.tfm" 1506812818 5816 6487f475ab0fc0090f4f5ecee309a863 ""
  "/usr/share/texlive/texmf-dist/fonts/tfm/public/libertinust1math/libertinust1-mathsym.tfm" 1503097459 1692 3c98c7d8c6479961029b661f02fcb5f8 ""
  "/usr/share/texlive/texmf-dist/fonts/tfm/public/marvosym/umvs.tfm" 1480098712 1772 135d23849cb646acc6bb1ae8d73e3f78 ""
  "/usr/share/texlive/texmf-dist/fonts/tfm/public/stix/stix-mathcal.tfm" 1480098718 2220 4be0194a42d141b33fa339861ecefc51 ""
  "/usr/share/texlive/texmf-dist/fonts/type1/public/fourier/fourier-bb.pfb" 1480098739 6232 c3fc7954848548c26c82678efc1400a6 ""
  "/usr/share/texlive/texmf-dist/fonts/type1/public/fourier/fourier-orns.pfb" 1480098739 14399 da7b71d28913252988d21a54be000ea7 ""
  "/usr/share/texlive/texmf-dist/fonts/type1/public/libertine/LinBiolinumT.pfb" 1480098742 548786 1e51d517556d29f2841d57da58668a69 ""
  "/usr/share/texlive/texmf-dist/fonts/type1/public/libertine/LinBiolinumTB.pfb" 1480098742 687959 b99c9f5a9b28f3dba077d1c078bceb3f ""
  "/usr/share/texlive/texmf-dist/fonts/type1/public/libertine/LinBiolinumTBO.pfb" 1480098742 581264 a4aa648e9ae621ad442172ed6cc5f0c9 ""
  "/usr/share/texlive/texmf-dist/fonts/type1/public/libertine/LinLibertineT.pfb" 1480098742 614791 ea39341e4db76f25cb20c361802d3cd5 ""
  "/usr/share/texlive/texmf-dist/fonts/type1/public/libertine/LinLibertineTB.pfb" 1480098742 538965 19c5c8b7f952ac97afb8565e9c21a82d ""
  "/usr/share/texlive/texmf-dist/fonts/type1/public/libertine/LinLibertineTBI.pfb" 1480098742 352082 59ab24fbfe551392079248531cd227b9 ""
  "/usr/share/texlive/texmf-dist/fonts/type1/public/libertine/LinLibertineTI.pfb" 1480098742 490980 e27f1e217a0902faea22205f197918d4 ""
  "/usr/share/texlive/texmf-dist/fonts/type1/public/libertinust1math/LibertinusT1Math.pfb" 1505510494 963497 a37b0e7a4214cf98beddb0ad270a0c28 ""
  "/usr/share/texlive/texmf-dist/fonts/type1/public/marvosym/marvosym.pfb" 1480098742 91705 188e103f30c94f64bce1570c4b989d07 ""
  "/usr/share/texlive/texmf-dist/fonts/type1/public/stix/stix-mathcal.pfb" 1480098745 63697 54c53ee8b8c43f52d0718f669ed6fb5e ""
  "/usr/share/texlive/texmf-dist/fonts/vf/public/fourier/futrorn.vf" 1480098763 236 cd726357622435e187ffa6197028ae34 ""
  "/usr/share/texlive/texmf-dist/fonts/vf/public/libertine/LinBiolinumT-tlf-t1.vf" 1490133671 1728 e76e04a950024a95b620698b679c9810 ""
  "/usr/share/texlive/texmf-dist/fonts/vf/public/libertine/LinBiolinumTB-tlf-sc-t1.vf" 1480098768 1732 ae72ccfc34b69e665e265413ff53c6df ""
  "/usr/share/texlive/texmf-dist/fonts/vf/public/libertine/LinBiolinumTB-tlf-t1.vf" 1480098768 1728 4ae633ddccb76ba8d0a0906a5e2e8fdf ""
  "/usr/share/texlive/texmf-dist/fonts/vf/public/libertine/LinBiolinumTBO-tlf-t1.vf" 1480098768 1728 886219be34cece71de898df5783bbce4 ""
  "/usr/share/texlive/texmf-dist/fonts/vf/public/libertine/LinLibertineT-tlf-sc-t1.vf" 1480098768 1732 19a98a3416ac208cfc1e8cd877852bec ""
  "/usr/share/texlive/texmf-dist/fonts/vf/public/libertine/LinLibertineT-tlf-t1.vf" 1480098768 1728 b078a050f24d7649619baa987d7216d8 ""
  "/usr/share/texlive/texmf-dist/fonts/vf/public/libertine/LinLibertineT-tlf-ts1.vf" 1490133671 640 f2633b196ddbd644937d19e300a5024e ""
  "/usr/share/texlive/texmf-dist/fonts/vf/public/libertine/LinLibertineTB-tlf-sc-t1.vf" 1490133671 1772 7f76ee81dccb744f7ac5dc9e1083f6ce ""
  "/usr/share/texlive/texmf-dist/fonts/vf/public/libertine/LinLibertineTB-tlf-t1.vf" 1490133671 1768 5d66dfd9709f1f38b8fb3cb38db46402 ""
  "/usr/share/texlive/texmf-dist/fonts/vf/public/libertine/LinLibertineTBI-tlf-t1.vf" 1490133671 1768 5f23793ecf3934e0180f58bfde58628d ""
  "/usr/share/texlive/texmf-dist/fonts/vf/public/libertine/LinLibertineTI-tlf-t1.vf" 1490133671 1768 b3bfd8ed1fe2dce5fd19610abe4c3dbe ""
  "/usr/share/texlive/texmf-dist/tex/context/base/mkii/supp-pdf.mkii" 1480098806 71627 94eb9990bed73c364d7f53f960cc8c5b ""
  "/usr/share/texlive/texmf-dist/tex/generic/babel-english/english.ldf" 1496785618 7008 9ff5fdcc865b01beca2b0fe4a46231d4 ""
  "/usr/share/texlive/texmf-dist/tex/generic/babel-spanish/spanish.ldf" 1480098812 26223 0286ca123141cff8dd4956c4576d2ef4 ""
  "/usr/share/texlive/texmf-dist/tex/generic/babel/babel.def" 1518644053 67244 2dce3d67c354c8d92f638d0f8682fb73 ""
  "/usr/share/texlive/texmf-dist/tex/generic/babel/babel.sty" 1518644053 15861 065fe343082d0cd2428cf984d6b2ef66 ""
  "/usr/share/texlive/texmf-dist/tex/generic/babel/switch.def" 1518644053 12523 d80bc74bf5e02fe4304443a6de8d01be ""
  "/usr/share/texlive/texmf-dist/tex/generic/babel/txtbabel.def" 1518644053 7434 1b3955075683beb1c883a0fcf92ed2d5 ""
  "/usr/share/texlive/texmf-dist/tex/generic/circuitikz/pgfcirc.defines.tex" 1496704806 47385 27abdedc9641e35a3aa124d51e6d3f5f ""
  "/usr/share/texlive/texmf-dist/tex/generic/circuitikz/pgfcircbipoles.tex" 1496704806 130816 3fe415922292b65dbcf1bcd9e950f1b3 ""
  "/usr/share/texlive/texmf-dist/tex/generic/circuitikz/pgfcirccurrent.tex" 1496704806 6393 23429f2de98cba0d57fd23a6b35f2281 ""
  "/usr/share/texlive/texmf-dist/tex/generic/circuitikz/pgfcircflow.tex" 1496704806 5872 7a6aa8b56fda07639b4a6b683d7dded2 ""
  "/usr/share/texlive/texmf-dist/tex/generic/circuitikz/pgfcirclabel.tex" 1496704806 6784 d4bdc748868b2df741379a1b9fbada6c ""
  "/usr/share/texlive/texmf-dist/tex/generic/circuitikz/pgfcircmonopoles.tex" 1480098812 18347 d670cd4a96bc877c75e07c7486e14637 ""
  "/usr/share/texlive/texmf-dist/tex/generic/circuitikz/pgfcircpath.tex" 1496704806 43584 476bd14cbc4f0eba7f65197e2657a760 ""
  "/usr/share/texlive/texmf-dist/tex/generic/circuitikz/pgfcircquadpoles.tex" 1496704806 16126 b9ac479cca53144e6cc712146acad797 ""
  "/usr/share/texlive/texmf-dist/tex/generic/circuitikz/pgfcircshapes.tex" 1496704806 5668 4ca8ec1f66e13cecf3578b75bf7c51a5 ""
  "/usr/share/texlive/texmf-dist/tex/generic/circuitikz/pgfcirctripoles.tex" 1496704806 116954 384f2b3cea99fab9f8e408ca8aa9e2de ""
  "/usr/share/texlive/texmf-dist/tex/generic/circuitikz/pgfcircutils.tex" 1490475211 1376 18d962084f96e97da19fa7489405ecce ""
  "/usr/share/texlive/texmf-dist/tex/generic/circuitikz/pgfcircvoltage.tex" 1496704806 13317 7e439c90224bf7865daa22a5a41c9f72 ""
  "/usr/share/texlive/texmf-dist/tex/generic/ifxetex/ifxetex.sty" 1480098815 1458 43ab4710dc82f3edeabecd0d099626b2 ""
  "/usr/share/texlive/texmf-dist/tex/generic/oberdiek/gettitlestring.sty" 1480098815 8237 3b62ef1f7e2c23a328c814b3893bc11f ""
  "/usr/share/texlive/texmf-dist/tex/generic/oberdiek/hobsub-generic.sty" 1517006633 185082 6c11d4e30ed78e2a12957b7e77030856 ""
  "/usr/share/texlive/texmf-dist/tex/generic/oberdiek/hobsub-hyperref.sty" 1480098815 70864 bcd5b216757bd619ae692a151d90085d ""
  "/usr/share/texlive/texmf-dist/tex/generic/oberdiek/ifluatex.sty" 1480098815 7324 2310d1247db0114eb4726807c8837a0e ""
  "/usr/share/texlive/texmf-dist/tex/generic/oberdiek/ifpdf.sty" 1490564930 1251 d170e11a3246c3392bc7f59595af42cb ""
  "/usr/share/texlive/texmf-dist/tex/generic/pgf/basiclayer/pgfcore.code.tex" 1480098816 1006 b103be0bfc8c1682ff1fa9760697a329 ""
  "/usr/share/texlive/texmf-dist/tex/generic/pgf/basiclayer/pgfcorearrows.code.tex" 1480098816 43226 167a99346bfe2676e3efcdde2d81fe45 ""
  "/usr/share/texlive/texmf-dist/tex/generic/pgf/basiclayer/pgfcoreexternal.code.tex" 1480098816 19302 4f089dc590e71f7331e6d5b5ea85273b ""
  "/usr/share/texlive/texmf-dist/tex/generic/pgf/basiclayer/pgfcoregraphicstate.code.tex" 1480098816 6068 edae1e768a7d8d8f0f00e953d2b0153e ""
  "/usr/share/texlive/texmf-dist/tex/generic/pgf/basiclayer/pgfcoreimage.code.tex" 1480098816 7041 a891ad72049e17c4e366c40ca37b0ccb ""
  "/usr/share/texlive/texmf-dist/tex/generic/pgf/basiclayer/pgfcorelayers.code.tex" 1480098816 4625 40c07e9f6f2f7c674704b3f2055560ce ""
  "/usr/share/texlive/texmf-dist/tex/generic/pgf/basiclayer/pgfcoreobjects.code.tex" 1480098816 2631 7eefa6cdbefd8d4e2bad7262cf1094cd ""
  "/usr/share/texlive/texmf-dist/tex/generic/pgf/basiclayer/pgfcorepathconstruct.code.tex" 1480098816 43477 81143b33d9ebafdeead07ede13372427 ""
  "/usr/share/texlive/texmf-dist/tex/generic/pgf/basiclayer/pgfcorepathprocessing.code.tex" 1480098816 17436 8d99d4113be311daf23deff86991ee7d ""
  "/usr/share/texlive/texmf-dist/tex/generic/pgf/basiclayer/pgfcorepathusage.code.tex" 1480098816 20772 c57e34db4aa7b1da013169d04b743eac ""
  "/usr/share/texlive/texmf-dist/tex/generic/pgf/basiclayer/pgfcorepatterns.code.tex" 1480098816 9641 711f0edc22c180a5caf168b6e8970057 ""
  "/usr/share/texlive/texmf-dist/tex/generic/pgf/basiclayer/pgfcorepoints.code.tex" 1480098816 34516 658a71478d21df554bce9d9cd436203a ""
  "/usr/share/texlive/texmf-dist/tex/generic/pgf/basiclayer/pgfcorequick.code.tex" 1480098816 3052 e5672c657232fd63b0a9853b0746297c ""
  "/usr/share/texlive/texmf-dist/tex/generic/pgf/basiclayer/pgfcorescopes.code.tex" 1480098816 16669 4ec6e40088fc6de6334b443fe2dc59f0 ""
  "/usr/share/texlive/texmf-dist/tex/generic/pgf/basiclayer/pgfcoreshade.code.tex" 1480098816 21541 4cd19f8ff7dd74d5aa7d803a6397af84 ""
  "/usr/share/texlive/texmf-dist/tex/generic/pgf/basiclayer/pgfcoretransformations.code.tex" 1480098816 19998 d77fef95c7369827753d17fd11be19c4 ""
  "/usr/share/texlive/texmf-dist/tex/generic/pgf/basiclayer/pgfcoretransparency.code.tex" 1480098816 8943 2e2495b057f8f0035b5568394d489963 ""
  "/usr/share/texlive/texmf-dist/tex/generic/pgf/frontendlayer/tikz/libraries/tikzlibrarycalc.code.tex" 1480098816 15934 b941bd3ae7b33179029513707d1f0ff6 ""
  "/usr/share/texlive/texmf-dist/tex/generic/pgf/frontendlayer/tikz/libraries/tikzlibrarydecorations.code.tex" 1480098816 5484 4bb4a5cbbd05d6f17a261b59dbd014f1 ""
  "/usr/share/texlive/texmf-dist/tex/generic/pgf/frontendlayer/tikz/libraries/tikzlibrarydecorations.pathmorphing.code.tex" 1480098816 319 d246cee5ce1aaf2afe558acd4731d5ba ""
  "/usr/share/texlive/texmf-dist/tex/generic/pgf/frontendlayer/tikz/libraries/tikzlibrarydecorations.pathreplacing.code.tex" 1480098816 1255 7940bad47e253420d587a4a875c7c06c ""
  "/usr/share/texlive/texmf-dist/tex/generic/pgf/frontendlayer/tikz/libraries/tikzlibraryfit.code.tex" 1480098816 3725 36db4c06798413d051778705f3255eea ""
  "/usr/share/texlive/texmf-dist/tex/generic/pgf/frontendlayer/tikz/libraries/tikzlibraryplotmarks.code.tex" 1480098816 443 6742ac279d940e87725265f9145ed090 ""
  "/usr/share/texlive/texmf-dist/tex/generic/pgf/frontendlayer/tikz/libraries/tikzlibraryshapes.arrows.code.tex" 1480098816 527 a8d3e34fbab3dc317cf9b06aa5cdc2e4 ""
  "/usr/share/texlive/texmf-dist/tex/generic/pgf/frontendlayer/tikz/libraries/tikzlibraryshapes.callouts.code.tex" 1480098816 1158 d6338189706f4587fbc6175c0fb41f17 ""
  "/usr/share/texlive/texmf-dist/tex/generic/pgf/frontendlayer/tikz/libraries/tikzlibraryshapes.code.tex" 1480098816 607 40dc15d3efcf10f095866a94bd544bc1 ""
  "/usr/share/texlive/texmf-dist/tex/generic/pgf/frontendlayer/tikz/libraries/tikzlibraryshapes.geometric.code.tex" 1480098816 457 ffe9f8b9d108b5f729fd86c78c63589a ""
  "/usr/share/texlive/texmf-dist/tex/generic/pgf/frontendlayer/tikz/libraries/tikzlibraryshapes.misc.code.tex" 1480098816 447 e87a0add254801e837fa6c18f61f340f ""
  "/usr/share/texlive/texmf-dist/tex/generic/pgf/frontendlayer/tikz/libraries/tikzlibraryshapes.multipart.code.tex" 1480098816 1004 86af66805a9d0b62bd41ea0796a64d50 ""
  "/usr/share/texlive/texmf-dist/tex/generic/pgf/frontendlayer/tikz/libraries/tikzlibraryshapes.symbols.code.tex" 1480098816 590 7e11000a24bbee9ae2a4cd0e5d88e58c ""
  "/usr/share/texlive/texmf-dist/tex/generic/pgf/frontendlayer/tikz/libraries/tikzlibrarytopaths.code.tex" 1480098816 11599 d694704a88e2f9007c996d3a6a4d629c ""
  "/usr/share/texlive/texmf-dist/tex/generic/pgf/frontendlayer/tikz/tikz.code.tex" 1480098816 176652 1c2926908e2b356d454795c35385d580 ""
  "/usr/share/texlive/texmf-dist/tex/generic/pgf/libraries/decorations/pgflibrarydecorations.pathmorphing.code.tex" 1480098816 8854 7be3c3b9eb0de90885a881085ce8e118 ""
  "/usr/share/texlive/texmf-dist/tex/generic/pgf/libraries/decorations/pgflibrarydecorations.pathreplacing.code.tex" 1480098816 7089 02ec01183269fb6991e0be82d034128a ""
  "/usr/share/texlive/texmf-dist/tex/generic/pgf/libraries/pgflibraryarrows.code.tex" 1480098816 31927 7acd27f90dd95ce67ad32166cd0b95ec ""
  "/usr/share/texlive/texmf-dist/tex/generic/pgf/libraries/pgflibraryfpu.code.tex" 1480098816 71137 c32d35e60bbb16d313e5b57ffc7e7f4a ""
  "/usr/share/texlive/texmf-dist/tex/generic/pgf/libraries/pgflibraryintersections.code.tex" 1480098816 33007 c277d64044b7e771d3aaed2c131547d2 ""
  "/usr/share/texlive/texmf-dist/tex/generic/pgf/libraries/pgflibraryplothandlers.code.tex" 1480098816 32969 dbcfd5a7de6a0f7255c333ef60287d59 ""
  "/usr/share/texlive/texmf-dist/tex/generic/pgf/libraries/pgflibraryplotmarks.code.tex" 1480098816 14289 3e102605531a114ad76afca2a43e66b7 ""
  "/usr/share/texlive/texmf-dist/tex/generic/pgf/libraries/shapes/pgflibraryshapes.arrows.code.tex" 1480098816 69900 cbd9fafb795a493fb2a3b73713994b78 ""
  "/usr/share/texlive/texmf-dist/tex/generic/pgf/libraries/shapes/pgflibraryshapes.callouts.code.tex" 1480098816 28333 0189c4cfb5044e700e6ba65a32295f01 ""
  "/usr/share/texlive/texmf-dist/tex/generic/pgf/libraries/shapes/pgflibraryshapes.geometric.code.tex" 1480098816 132566 291d42c3b23fdb5c47e51b36a5fea0c4 ""
  "/usr/share/texlive/texmf-dist/tex/generic/pgf/libraries/shapes/pgflibraryshapes.misc.code.tex" 1480098816 37737 ea6cb0b4e615f6048f20ee7153b3cc78 ""
  "/usr/share/texlive/texmf-dist/tex/generic/pgf/libraries/shapes/pgflibraryshapes.multipart.code.tex" 1480098816 49891 e74f8181c57d9359c941b6bee48fccc2 ""
  "/usr/share/texlive/texmf-dist/tex/generic/pgf/libraries/shapes/pgflibraryshapes.symbols.code.tex" 1480098816 90791 0f3e73cae9286c96d9fcb2161cc223bc ""
  "/usr/share/texlive/texmf-dist/tex/generic/pgf/math/pgfmath.code.tex" 1480098816 454 9e9e7c99f4da4f41698be21eaef4938e ""
  "/usr/share/texlive/texmf-dist/tex/generic/pgf/math/pgfmathcalc.code.tex" 1480098816 13416 940ea6971d7a65dc440d3479939c66ae ""
  "/usr/share/texlive/texmf-dist/tex/generic/pgf/math/pgfmathfloat.code.tex" 1480098816 94097 62ac62cda46eb715560dc27f9ed6e8b1 ""
  "/usr/share/texlive/texmf-dist/tex/generic/pgf/math/pgfmathfunctions.base.code.tex" 1480098816 9375 5adc70f722abd29fc250d59e0694b548 ""
  "/usr/share/texlive/texmf-dist/tex/generic/pgf/math/pgfmathfunctions.basic.code.tex" 1480098816 22069 7c21c42b15718ce922f36235be360490 ""
  "/usr/share/texlive/texmf-dist/tex/generic/pgf/math/pgfmathfunctions.code.tex" 1480098816 8210 a7be5b52ef3d2c087b7dc3d52898b67e ""
  "/usr/share/texlive/texmf-dist/tex/generic/pgf/math/pgfmathfunctions.comparison.code.tex" 1480098816 3534 c7f28fbac13616513e513efe93b8569b ""
  "/usr/share/texlive/texmf-dist/tex/generic/pgf/math/pgfmathfunctions.integerarithmetics.code.tex" 1480098816 3167 7c9394e79aac27db96a92f9b2792b858 ""
  "/usr/share/texlive/texmf-dist/tex/generic/pgf/math/pgfmathfunctions.misc.code.tex" 1480098816 9289 261407875b9dbb0194691c3eb893610f ""
  "/usr/share/texlive/texmf-dist/tex/generic/pgf/math/pgfmathfunctions.random.code.tex" 1480098816 7078 946ddf4a7e57219b6afdbad98eb6731b ""
  "/usr/share/texlive/texmf-dist/tex/generic/pgf/math/pgfmathfunctions.round.code.tex" 1480098816 2688 139c6abc86761a6190c2f4bef5d752be ""
  "/usr/share/texlive/texmf-dist/tex/generic/pgf/math/pgfmathfunctions.trigonometric.code.tex" 1480098816 92284 dcf023dbaa84e6c50e11c2f79fe8cfa6 ""
  "/usr/share/texlive/texmf-dist/tex/generic/pgf/math/pgfmathparser.code.tex" 1480098816 35430 046e15fbb65e74d8f0e7945f99741fdb ""
  "/usr/share/texlive/texmf-dist/tex/generic/pgf/math/pgfmathutil.code.tex" 1480098816 7099 f44d505bae6c7c2b933cdd63441db4b9 ""
  "/usr/share/texlive/texmf-dist/tex/generic/pgf/modules/pgfmoduledecorations.code.tex" 1480098816 71902 658cc1e13f73daec4225b8fc1c27600b ""
  "/usr/share/texlive/texmf-dist/tex/generic/pgf/modules/pgfmodulematrix.code.tex" 1480098816 20934 2328bd2e04520e1ab077ac4ee13b8935 ""
  "/usr/share/texlive/texmf-dist/tex/generic/pgf/modules/pgfmoduleplot.code.tex" 1480098816 16203 83cbe1220e389eeee283a6168f9a567b ""
  "/usr/share/texlive/texmf-dist/tex/generic/pgf/modules/pgfmoduleshapes.code.tex" 1480098816 42906 d54376d96df1a2ae2d33fb722236d8e9 ""
  "/usr/share/texlive/texmf-dist/tex/generic/pgf/systemlayer/pgf.cfg" 1480098816 978 15af626ebd3d4d790aac19170dac04f2 ""
  "/usr/share/texlive/texmf-dist/tex/generic/pgf/systemlayer/pgfsys-common-pdf.def" 1480098816 5437 d91f93ed61ecdc57e119849b2d784a0b ""
  "/usr/share/texlive/texmf-dist/tex/generic/pgf/systemlayer/pgfsys-luatex.def" 1480098816 14274 79db5dec277817e8688d603ca0741ba3 ""
  "/usr/share/texlive/texmf-dist/tex/generic/pgf/systemlayer/pgfsys-pdftex.def" 1480098816 13507 809d848d9262638e1b1705a68a73c566 ""
  "/usr/share/texlive/texmf-dist/tex/generic/pgf/systemlayer/pgfsys.code.tex" 1480098816 35113 2ccc50c1c9573e4bac9230d030f9c67c ""
  "/usr/share/texlive/texmf-dist/tex/generic/pgf/systemlayer/pgfsysprotocol.code.tex" 1480098816 1983 b5994ebbcee17f1ba3d29bb1bd696fcf ""
  "/usr/share/texlive/texmf-dist/tex/generic/pgf/systemlayer/pgfsyssoftpath.code.tex" 1480098816 7881 d459d6057e13d10ce7a227ae44b7295e ""
  "/usr/share/texlive/texmf-dist/tex/generic/pgf/utilities/pgfcalendar.code.tex" 1480098816 21743 1212068473371dbb70ea813f4f0f2e5e ""
  "/usr/share/texlive/texmf-dist/tex/generic/pgf/utilities/pgffor.code.tex" 1480098816 22211 d696ef78c12269178882d218b2cf191d ""
  "/usr/share/texlive/texmf-dist/tex/generic/pgf/utilities/pgfkeys.code.tex" 1480098816 36194 e194ef4e0b396b531a3891feb4b1cc22 ""
  "/usr/share/texlive/texmf-dist/tex/generic/pgf/utilities/pgfkeysfiltered.code.tex" 1480098816 33377 af391d6ad1bfcbe2278e191f48e43ba8 ""
  "/usr/share/texlive/texmf-dist/tex/generic/pgf/utilities/pgfrcs.code.tex" 1480098816 2536 a3b0529d815a2759ba157b56610a6377 ""
  "/usr/share/texlive/texmf-dist/tex/generic/pgf/utilities/pgfutil-common-lists.tex" 1480098816 6833 114eda2cf1d348e0e7e477a1a4dc1941 ""
  "/usr/share/texlive/texmf-dist/tex/generic/pgf/utilities/pgfutil-common.tex" 1480098816 16501 ab0135765e27b6b8dae047831fe84818 ""
  "/usr/share/texlive/texmf-dist/tex/generic/pgf/utilities/pgfutil-latex.def" 1480098816 5544 294baac9629ba59f675b1f2027ad7136 ""
  "/usr/share/texlive/texmf-dist/tex/generic/pgfplots/libs/pgflibrarypgfplots.surfshading.code.tex" 1480098816 22701 5fab7b8ebb90b053dc067d1bd37e43c2 ""
  "/usr/share/texlive/texmf-dist/tex/generic/pgfplots/libs/pgfplotslibrary.code.tex" 1480098816 3047 aa82404aec57311271f4991c44bd71dc ""
  "/usr/share/texlive/texmf-dist/tex/generic/pgfplots/liststructure/pgfplotsarray.code.tex" 1496704190 23537 54be8160344d894595f6d145b1311658 ""
  "/usr/share/texlive/texmf-dist/tex/generic/pgfplots/liststructure/pgfplotsdeque.code.tex" 1480098816 4288 b8d6247899b21e3bb66bb11b24d30f2c ""
  "/usr/share/texlive/texmf-dist/tex/generic/pgfplots/liststructure/pgfplotsliststructure.code.tex" 1480098816 13828 11d1b09335a4a8baa693dd1e6cac3edf ""
  "/usr/share/texlive/texmf-dist/tex/generic/pgfplots/liststructure/pgfplotsliststructureext.code.tex" 1496704190 24373 6544c1554e5da33118301011eb03058d ""
  "/usr/share/texlive/texmf-dist/tex/generic/pgfplots/liststructure/pgfplotsmatrix.code.tex" 1480098816 18861 7dc35832c8ccea3aa73cdcd75ec0a60b ""
  "/usr/share/texlive/texmf-dist/tex/generic/pgfplots/numtable/pgfplotstableshared.code.tex" 1496704190 78679 dcd35e59a9413900aafdd882799961a9 ""
  "/usr/share/texlive/texmf-dist/tex/generic/pgfplots/oldpgfcompatib/pgfplotsoldpgfsupp_loader.code.tex" 1496704190 10789 4b94397f1d12a1a6162ade4d596b3030 ""
  "/usr/share/texlive/texmf-dist/tex/generic/pgfplots/oldpgfcompatib/pgfplotsoldpgfsupp_pgflibraryfpu.code.tex" 1496704190 74424 4b902e42350d434c0a09a4e67ea5612a ""
  "/usr/share/texlive/texmf-dist/tex/generic/pgfplots/oldpgfcompatib/pgfplotsoldpgfsupp_pgfmathfloat.code.tex" 1496704190 95256 f53bf7fee2ec814e1d386c124038ab8c ""
  "/usr/share/texlive/texmf-dist/tex/generic/pgfplots/pgfplots.code.tex" 1496704190 480040 829c82a414cb9c02e679fbbf87895f25 ""
  "/usr/share/texlive/texmf-dist/tex/generic/pgfplots/pgfplots.errorbars.code.tex" 1480098816 22428 72578a4c9324bc5dfafe23fe64f64024 ""
  "/usr/share/texlive/texmf-dist/tex/generic/pgfplots/pgfplots.markers.code.tex" 1496704190 12462 43d76eeeb8efa51f11a058cb813ba410 ""
  "/usr/share/texlive/texmf-dist/tex/generic/pgfplots/pgfplots.paths.code.tex" 1480098816 2419 026baafbf72a109e199ede6fbbfd9caa ""
  "/usr/share/texlive/texmf-dist/tex/generic/pgfplots/pgfplots.revision.tex" 1496704190 516 b81962d57567169633fdcba032b06f19 ""
  "/usr/share/texlive/texmf-dist/tex/generic/pgfplots/pgfplots.scaling.code.tex" 1496704190 123492 195f2f2cd1a90e6cf15b30d4dde10e15 ""
  "/usr/share/texlive/texmf-dist/tex/generic/pgfplots/pgfplotscoordprocessing.code.tex" 1496704190 357841 963dfaddc3174c54e63c26b4819e8550 ""
  "/usr/share/texlive/texmf-dist/tex/generic/pgfplots/pgfplotscore.code.tex" 1480098816 19944 7957349fbe31c4e8dea9de4cd41cb086 ""
  "/usr/share/texlive/texmf-dist/tex/generic/pgfplots/pgfplotsmeshplothandler.code.tex" 1496704190 133871 7247b31742a2240343a6739cb76d6821 ""
  "/usr/share/texlive/texmf-dist/tex/generic/pgfplots/pgfplotsmeshplotimage.code.tex" 1480098816 24402 288fc3f6c7980728b8a519dfd1737d22 ""
  "/usr/share/texlive/texmf-dist/tex/generic/pgfplots/pgfplotsplothandlers.code.tex" 1496704190 117673 ba2a69982abb70115c5431acf313d1e6 ""
  "/usr/share/texlive/texmf-dist/tex/generic/pgfplots/pgfplotsstackedplots.code.tex" 1480098816 26190 c428334c805ae1d15110eb8670292947 ""
  "/usr/share/texlive/texmf-dist/tex/generic/pgfplots/pgfplotsticks.code.tex" 1496704190 90664 85b67905efff9ea12b75a45f06686bb9 ""
  "/usr/share/texlive/texmf-dist/tex/generic/pgfplots/sys/pgflibrarypgfplots.surfshading.pgfsys-pdftex.def" 1480098816 5907 9dc460712c23e5b3338820499d47608c ""
  "/usr/share/texlive/texmf-dist/tex/generic/pgfplots/sys/pgfplotssysgeneric.code.tex" 1480098816 3095 c82d281b748902a65be2ccca97360b11 ""
  "/usr/share/texlive/texmf-dist/tex/generic/pgfplots/util/pgfplotsbinary.code.tex" 1480098816 23050 a369aa910ef860a3621fe0459faa335c ""
  "/usr/share/texlive/texmf-dist/tex/generic/pgfplots/util/pgfplotsbinary.data.code.tex" 1480098816 26859 7a4ee9d206fb0a0daa0d3108445afb57 ""
  "/usr/share/texlive/texmf-dist/tex/generic/pgfplots/util/pgfplotscolor.code.tex" 1480098816 23958 1b96260863091af1669c3a38b1c4c9af ""
  "/usr/share/texlive/texmf-dist/tex/generic/pgfplots/util/pgfplotscolormap.code.tex" 1496704190 88956 018b2512ef27998e97af72e8b1dcdbd5 ""
  "/usr/share/texlive/texmf-dist/tex/generic/pgfplots/util/pgfplotsutil.code.tex" 1496704190 69300 d69422610b847918ed9c5f4455896b9f ""
  "/usr/share/texlive/texmf-dist/tex/generic/pgfplots/util/pgfplotsutil.verb.code.tex" 1480098816 3286 c17079ba50483e1ac1721268ea016041 ""
  "/usr/share/texlive/texmf-dist/tex/generic/tracklang/tracklang.tex" 1519255948 83000 69dc3cf266a21a4bfb926a1053ef1cd5 ""
  "/usr/share/texlive/texmf-dist/tex/generic/unicode-data/CaseFolding.txt" 1498600549 78161 7893b6e005c5a521319a0d12062ae122 ""
  "/usr/share/texlive/texmf-dist/tex/generic/unicode-data/SpecialCasing.txt" 1498600549 16830 e49d6f1fe536f43762ba1ecfe9e53e12 ""
  "/usr/share/texlive/texmf-dist/tex/generic/unicode-data/UnicodeData.txt" 1498600549 1735010 2a52f30695dcc821f0f224650552beaf ""
  "/usr/share/texlive/texmf-dist/tex/generic/xkeyval/keyval.tex" 1480098819 2725 fc34ef3ccb37ba15a640e8fca6190bca ""
  "/usr/share/texlive/texmf-dist/tex/generic/xkeyval/xkeyval.tex" 1480098819 19231 26434a5656c684f5ffb1f26f98006baa ""
  "/usr/share/texlive/texmf-dist/tex/generic/xkeyval/xkvutils.tex" 1480098819 7677 6f5ce7c1124cad7ec57d05b2562bd8fe ""
  "/usr/share/texlive/texmf-dist/tex/latex/amscls/amsthm.sty" 1513722769 12604 3dec726c041422879dc3268237f09026 ""
  "/usr/share/texlive/texmf-dist/tex/latex/amsfonts/amsfonts.sty" 1480098820 5949 3f3fd50a8cc94c3d4cbf4fc66cd3df1c ""
  "/usr/share/texlive/texmf-dist/tex/latex/amsfonts/amssymb.sty" 1480098820 13829 94730e64147574077f8ecfea9bb69af4 ""
  "/usr/share/texlive/texmf-dist/tex/latex/amsfonts/umsa.fd" 1480098820 961 6518c6525a34feb5e8250ffa91731cff ""
  "/usr/share/texlive/texmf-dist/tex/latex/amsfonts/umsb.fd" 1480098820 961 d02606146ba5601b5645f987c92e6193 ""
  "/usr/share/texlive/texmf-dist/tex/latex/amsmath/amsbsy.sty" 1480098820 2210 5c54ab129b848a5071554186d0168766 ""
  "/usr/share/texlive/texmf-dist/tex/latex/amsmath/amsgen.sty" 1480098820 4160 c115536cf8d4ff25aa8c1c9bc4ecb79a ""
  "/usr/share/texlive/texmf-dist/tex/latex/amsmath/amsmath.sty" 1504905757 84352 897a476d96a0681047a5b0f91178a3d2 ""
  "/usr/share/texlive/texmf-dist/tex/latex/amsmath/amsopn.sty" 1480098820 4115 318a66090112f3aa3f415aeb6fe8540f ""
  "/usr/share/texlive/texmf-dist/tex/latex/amsmath/amstext.sty" 1480098820 2431 fe3078ec12fc30287f568596f8e0b948 ""
  "/usr/share/texlive/texmf-dist/tex/latex/base/fontenc.sty" 1492297155 4571 13977df0eda144b93597fc709035ad1f ""
  "/usr/share/texlive/texmf-dist/tex/latex/base/ifthen.sty" 1480098821 5159 a08c9bbd48fc492f15b22e458bef961f ""
  "/usr/share/texlive/texmf-dist/tex/latex/base/inputenc.sty" 1480098821 4732 d63eda807ac82cca2ca8488efd31a966 ""
  "/usr/share/texlive/texmf-dist/tex/latex/base/latin1.def" 1480098821 5678 8e29fd14a2eae43c881b22d6ad304476 ""
  "/usr/share/texlive/texmf-dist/tex/latex/base/omsenc.dfu" 1487721667 2004 ac51aeac484f08c01026120d62677eca ""
  "/usr/share/texlive/texmf-dist/tex/latex/base/ot1enc.dfu" 1487721667 3181 1cb3e9ad01f4a01127b2ffd821bfeec7 ""
  "/usr/share/texlive/texmf-dist/tex/latex/base/t1cmtt.fd" 1480098821 2230 5ebc5467205143c6f21bcc41d27910c1 ""
  "/usr/share/texlive/texmf-dist/tex/latex/base/t1enc.def" 1492297155 10006 a90ba4035cf778f32f424e297d92e235 ""
  "/usr/share/texlive/texmf-dist/tex/latex/base/t1enc.dfu" 1487721667 11255 9d97362866549d3d3c994b5f28d1b9b5 ""
  "/usr/share/texlive/texmf-dist/tex/latex/base/textcomp.sty" 1492297155 16154 f2c73e20ca771d534a8516c62c6b0eae ""
  "/usr/share/texlive/texmf-dist/tex/latex/base/ts1cmr.fd" 1480098821 2217 d274654bda1292013bdf48d5f720a495 ""
  "/usr/share/texlive/texmf-dist/tex/latex/base/ts1enc.def" 1480098821 7767 aa88823823f5e767d79ea1166ab1ae74 ""
  "/usr/share/texlive/texmf-dist/tex/latex/base/ts1enc.dfu" 1487721667 4919 76510afd60e8282294f944c2f9f5103b ""
  "/usr/share/texlive/texmf-dist/tex/latex/base/utf8.def" 1487721667 7784 325a2a09984cb5c4ff230f9867145ad3 ""
  "/usr/share/texlive/texmf-dist/tex/latex/caption/caption.sty" 1480098823 66233 8b81cfab95a1f8fc2f0f6c89415b087a ""
  "/usr/share/texlive/texmf-dist/tex/latex/caption/caption3.sty" 1480098823 64866 1ea74c5f2d1685881497f021b8f186b2 ""
  "/usr/share/texlive/texmf-dist/tex/latex/circuitikz/circuitikz.sty" 1496704806 8516 193c0d6064549a399464a9c35e3d858f ""
  "/usr/share/texlive/texmf-dist/tex/latex/cite/cite.sty" 1480098825 26218 19edeff8cdc2bcb704e8051dc55eb5a7 ""
  "/usr/share/texlive/texmf-dist/tex/latex/datetime2-english/datetime2-english-base.ldf" 1480098826 6040 7c38ef62ef386e59ac3253e25a4d7bd5 ""
  "/usr/share/texlive/texmf-dist/tex/latex/datetime2-english/datetime2-english.ldf" 1480098826 3406 fa487895657556d02d7e063936789c80 ""
  "/usr/share/texlive/texmf-dist/tex/latex/datetime2-spanish/datetime2-spanish-ascii.ldf" 1510617120 2879 e66f1193b0dbdcd1976de3ffbbdebea4 ""
  "/usr/share/texlive/texmf-dist/tex/latex/datetime2-spanish/datetime2-spanish.ldf" 1510617120 6662 842c490fe8f8ac7593ffaad8c63f9937 ""
  "/usr/share/texlive/texmf-dist/tex/latex/datetime2/datetime2-calc.sty" 1480098826 13405 9db97b52d60b78b50e4c0b573567a02b ""
  "/usr/share/texlive/texmf-dist/tex/latex/datetime2/datetime2.sty" 1480098826 48787 e77557b147df979677761aab9b61b8ca ""
  "/usr/share/texlive/texmf-dist/tex/latex/elocalloc/elocalloc.sty" 1481842864 1428 7d469063535b93044f827bfdb1b0a130 ""
  "/usr/share/texlive/texmf-dist/tex/latex/enumitem/enumitem.sty" 1480098827 42666 6fa770e3485520a6a5f2ea7d259c8f8d ""
  "/usr/share/texlive/texmf-dist/tex/latex/environ/environ.sty" 1480098827 4378 f429f0da968c278653359293040a8f52 ""
  "/usr/share/texlive/texmf-dist/tex/latex/eso-pic/eso-pic.sty" 1480098827 11954 3abdeb9fbc956bcd048295dd83dd5e7c ""
  "/usr/share/texlive/texmf-dist/tex/latex/etoolbox/etoolbox.sty" 1518389458 43862 d90315ae4a46ef887a38b4ccba021f91 ""
  "/usr/share/texlive/texmf-dist/tex/latex/fixme/fixme.sty" 1488837666 26017 34416e5af5011ecf66a9131c55badf07 ""
  "/usr/share/texlive/texmf-dist/tex/latex/fixme/layouts/env/fxenvlayoutcolor.sty" 1488837666 2300 c90d4c869eefb5f2c764a41f779bae39 ""
  "/usr/share/texlive/texmf-dist/tex/latex/fixme/layouts/target/fxtargetlayoutcolor.sty" 1488837666 2153 a4dfa683e76e41985b52a756cccc5f8d ""
  "/usr/share/texlive/texmf-dist/tex/latex/fixme/themes/fxthemecolor.sty" 1488837666 3126 1bbc72dda7077c4172db6d2d578ae099 ""
  "/usr/share/texlive/texmf-dist/tex/latex/float/float.sty" 1480098828 6749 16d2656a1984957e674b149555f1ea1d ""
  "/usr/share/texlive/texmf-dist/tex/latex/fontaxes/fontaxes.sty" 1480098829 14170 4202cf11062745283a9a5fdc97c16c48 ""
  "/usr/share/texlive/texmf-dist/tex/latex/forest/forest.sty" 1500070498 350382 5acb55040bcf8080692df2e32715e5ea ""
  "/usr/share/texlive/texmf-dist/tex/latex/fourier/fmlfutm.fd" 1480098829 640 e9faa3c895b5b0d2cc1c1f7ae5b1e92b ""
  "/usr/share/texlive/texmf-dist/tex/latex/fourier/fmsfutm.fd" 1480098829 344 d6ad49184dbd12acf51a3d68a16431aa ""
  "/usr/share/texlive/texmf-dist/tex/latex/fourier/fmxfutm.fd" 1480098829 234 391aead033d3fe052ccf3274bb7741ee ""
  "/usr/share/texlive/texmf-dist/tex/latex/fourier/fourier-orns.sty" 1480098829 1677 589eddc75f98c1b83abe9d1f1007ef8c ""
  "/usr/share/texlive/texmf-dist/tex/latex/fourier/fourier.sty" 1480098829 14587 5ab3db6bde809931d7e61b01babd4b61 ""
  "/usr/share/texlive/texmf-dist/tex/latex/fourier/ufuts.fd" 1480098829 996 1edd0aec168563e32831d49e469347e0 ""
  "/usr/share/texlive/texmf-dist/tex/latex/graphics-cfg/color.cfg" 1480098830 1213 620bba36b25224fa9b7e1ccb4ecb76fd ""
  "/usr/share/texlive/texmf-dist/tex/latex/graphics-cfg/graphics.cfg" 1480098830 1224 978390e9c2234eab29404bc21b268d1e ""
  "/usr/share/texlive/texmf-dist/tex/latex/graphics-def/pdftex.def" 1515537368 17334 520b9b85ad8a2a48eda3f643e27a5179 ""
  "/usr/share/texlive/texmf-dist/tex/latex/graphics/graphics.sty" 1498427532 15275 7d676729b1bedd3e7f3c6717affb366c ""
  "/usr/share/texlive/texmf-dist/tex/latex/graphics/graphicx.sty" 1498427532 9066 649f2ccf62888e3d8c3e57256b70b8e1 ""
  "/usr/share/texlive/texmf-dist/tex/latex/graphics/lscape.sty" 1480098830 1757 94e21888eaf2391b7bbc441045c70c12 ""
  "/usr/share/texlive/texmf-dist/tex/latex/graphics/trig.sty" 1480098830 3980 0a268fbfda01e381fa95821ab13b6aee ""
  "/usr/share/texlive/texmf-dist/tex/latex/hyperref/hpdftex.def" 1518041854 51699 9069fc983fff0db91d59a15af144ad62 ""
  "/usr/share/texlive/texmf-dist/tex/latex/hyperref/hyperref.sty" 1518041854 234088 2c849389d62d41c593d9f5176c4116ab ""
  "/usr/share/texlive/texmf-dist/tex/latex/hyperref/nameref.sty" 1480098831 12949 81e4e808884a8f0e276b69410e234656 ""
  "/usr/share/texlive/texmf-dist/tex/latex/hyperref/pd1enc.def" 1518041854 14098 4e70bf396c7c265bd8b0e5cab3fd3d4d ""
  "/usr/share/texlive/texmf-dist/tex/latex/ifetex/ifetex.sty" 1480098831 1571 45d3cd316bdf45071542b57b1784c273 ""
  "/usr/share/texlive/texmf-dist/tex/latex/inlinedef/inlinedef.sty" 1480098831 10102 e5ccd67aecac6cb4bf5de2b491ef79b5 ""
  "/usr/share/texlive/texmf-dist/tex/latex/l3kernel/expl3-code.tex" 1519422854 865979 4e627d13dfa51060cef916f5bf16b57a ""
  "/usr/share/texlive/texmf-dist/tex/latex/l3kernel/expl3.sty" 1519422854 9854 30dd9ffac9577d887036852ef4c7ccc0 ""
  "/usr/share/texlive/texmf-dist/tex/latex/l3kernel/l3pdfmode.def" 1519422854 12836 6f78fd4e4ede5f794b4e9523f8e11191 ""
  "/usr/share/texlive/texmf-dist/tex/latex/l3packages/l3keys2e/l3keys2e.sty" 1519337871 4568 4c3ae08ebeee5fea01e0919e229c9b4d ""
  "/usr/share/texlive/texmf-dist/tex/latex/l3packages/xparse/xparse.sty" 1519337871 76828 accb53d91c291d3ec67841b8989ca15c ""
  "/usr/share/texlive/texmf-dist/tex/latex/latexconfig/epstopdf-sys.cfg" 1480098833 678 4792914a8f45be57bb98413425e4c7af ""
  "/usr/share/texlive/texmf-dist/tex/latex/latexconfig/hyperref.cfg" 1480098833 235 6031e5765137be07eed51a510b2b8fb7 ""
  "/usr/share/texlive/texmf-dist/tex/latex/lettrine/lettrine.cfg" 1480098833 1198 5eef98894a1cf2d02796fa3bdc12d0c8 ""
  "/usr/share/texlive/texmf-dist/tex/latex/lettrine/lettrine.sty" 1480098833 8107 f453b3253a683b65504c13be688c04e4 ""
  "/usr/share/texlive/texmf-dist/tex/latex/libertine/LinLibertine_I.tex" 1480098833 24957 22a8dc56372173d7ffa65753dfc6757e ""
  "/usr/share/texlive/texmf-dist/tex/latex/libertine/T1LinuxBiolinumT-TLF.fd" 1490133672 2264 2324ece7d4d2a7fa3c2138d120196405 ""
  "/usr/share/texlive/texmf-dist/tex/latex/libertine/T1LinuxLibertineT-TLF.fd" 1490133672 2980 15412b63bb0119ade194e089fff355d4 ""
  "/usr/share/texlive/texmf-dist/tex/latex/libertine/TS1LinuxLibertineT-TLF.fd" 1490133672 1689 42435c12d9d3dc0c446eb02409690ab9 ""
  "/usr/share/texlive/texmf-dist/tex/latex/libertine/libertine.sty" 1515109415 20418 d46c8495534245c6cf2a6c86983630c8 ""
  "/usr/share/texlive/texmf-dist/tex/latex/libertinust1math/libertinust1math.sty" 1506027358 70615 77e3c0cb7fbaa20ad4aa385b5825ee3d ""
  "/usr/share/texlive/texmf-dist/tex/latex/libertinust1math/ls1libertinust1math.fd" 1506027358 1630 14f895d2b4598e0682364f980fe1a9fa ""
  "/usr/share/texlive/texmf-dist/tex/latex/libertinust1math/ls1libertinust1mathbb.fd" 1506027358 1073 81d8bcdb8c5fd000f0eb1d86948d5100 ""
  "/usr/share/texlive/texmf-dist/tex/latex/libertinust1math/ls1libertinust1mathsf.fd" 1503097459 1499 c3c703c9aef69e90bf05f799c65a4441 ""
  "/usr/share/texlive/texmf-dist/tex/latex/libertinust1math/ls2libertinust1mathex.fd" 1506027358 1072 8078aa86b971bf0ce357159284a9cef7 ""
  "/usr/share/texlive/texmf-dist/tex/latex/libertinust1math/ls2libertinust1mathsym.fd" 1506027358 1094 8d1036e0cc915dedfcc80513a3d952a3 ""
  "/usr/share/texlive/texmf-dist/tex/latex/lipsum/lipsum.sty" 1480098833 103491 f3a8d28ba533bcdb24167b15de14ff22 ""
  "/usr/share/texlive/texmf-dist/tex/latex/listings/listings.cfg" 1480098833 1827 d72ad54409ca5c1068a1939c63441bd2 ""
  "/usr/share/texlive/texmf-dist/tex/latex/listings/listings.sty" 1480098833 80336 ff90c926c3d7bfdaa3d80ca57123b0bb ""
  "/usr/share/texlive/texmf-dist/tex/latex/listings/lstmisc.sty" 1480098833 77028 c3eb00afb55a32bc13ca8da7f5234377 ""
  "/usr/share/texlive/texmf-dist/tex/latex/marvosym/marvosym.sty" 1480098833 9393 ceaf2ea8eb2c81fdb168323fc5fffc89 ""
  "/usr/share/texlive/texmf-dist/tex/latex/marvosym/umvs.fd" 1480098833 111 395c88825a74c0d7a4afff69645f4d03 ""
  "/usr/share/texlive/texmf-dist/tex/latex/memoir/mem11.clo" 1480098834 4077 2f2af8e7cb6e684fbd08a4498608691a ""
  "/usr/share/texlive/texmf-dist/tex/latex/memoir/memhfixc.sty" 1480098834 11285 dbd4440be337fece041abdf4e6e17516 ""
  "/usr/share/texlive/texmf-dist/tex/latex/memoir/memoir.cls" 1480098834 403550 cf3b1268347cbf0206bbe925178c9579 ""
  "/usr/share/texlive/texmf-dist/tex/latex/memoir/mempatch.sty" 1480098834 1325 61d651ec19190481219253f142256d58 ""
  "/usr/share/texlive/texmf-dist/tex/latex/ms/everysel.sty" 1480098835 4623 936bfb87af7b91b6496a2317f80db16b ""
  "/usr/share/texlive/texmf-dist/tex/latex/ms/everyshi.sty" 1480098835 3878 6aa7c08ff2621006e0603349e40a30a8 ""
  "/usr/share/texlive/texmf-dist/tex/latex/ms/ragged2e.sty" 1480098835 9938 95cd4dc3edfd2c1a9e8f3f4cc43db1ce ""
  "/usr/share/texlive/texmf-dist/tex/latex/mweights/mweights.sty" 1490909540 4953 67f29a12ea26221103fce6bae3433e60 ""
  "/usr/share/texlive/texmf-dist/tex/latex/nomencl/nomencl.sty" 1480098836 6973 f8ea974f22cadd19e9ac5f7bc181f3a8 ""
  "/usr/share/texlive/texmf-dist/tex/latex/oberdiek/auxhook.sty" 1480098836 3834 4363110eb0ef1eb2b71c8fcbcdb6c357 ""
  "/usr/share/texlive/texmf-dist/tex/latex/oberdiek/epstopdf-base.sty" 1480098836 12095 5337833c991d80788a43d3ce26bd1c46 ""
  "/usr/share/texlive/texmf-dist/tex/latex/oberdiek/grfext.sty" 1480098836 7075 2fe3d848bba95f139de11ded085e74aa ""
  "/usr/share/texlive/texmf-dist/tex/latex/oberdiek/kvoptions.sty" 1480098836 22417 1d9df1eb66848aa31b18a593099cf45c ""
  "/usr/share/texlive/texmf-dist/tex/latex/oberdiek/pdflscape.sty" 1480098836 6688 c84de1eae6cda82865a6d3d09e339ec9 ""
  "/usr/share/texlive/texmf-dist/tex/latex/oberdiek/rerunfilecheck.sty" 1480098836 9581 023642318cef9f4677efe364de1e2a27 ""
  "/usr/share/texlive/texmf-dist/tex/latex/pdfpages/pdfpages.sty" 1509485055 52989 80e784f009ef46fd8220535bd14a7d82 ""
  "/usr/share/texlive/texmf-dist/tex/latex/pdfpages/pppdftex.def" 1509485055 6364 ca3f15bd79c5439d528d1a286b3405c1 ""
  "/usr/share/texlive/texmf-dist/tex/latex/pgf/basiclayer/pgf.sty" 1480098837 1197 8a80cdde14696a9198f1793a55dcf332 ""
  "/usr/share/texlive/texmf-dist/tex/latex/pgf/basiclayer/pgfcore.sty" 1480098837 410 5bf12ea7330e5f12c445332a4fe9a263 ""
  "/usr/share/texlive/texmf-dist/tex/latex/pgf/compatibility/pgfcomp-version-0-65.sty" 1480098837 21115 facf03b7dbe5ea2f5f1dce1ac84b5d05 ""
  "/usr/share/texlive/texmf-dist/tex/latex/pgf/compatibility/pgfcomp-version-1-18.sty" 1480098837 1091 d9163d29def82ee90370c8a63667742c ""
  "/usr/share/texlive/texmf-dist/tex/latex/pgf/frontendlayer/tikz.sty" 1480098837 339 592cf35cba3d400082b8a9a5d0199d70 ""
  "/usr/share/texlive/texmf-dist/tex/latex/pgf/math/pgfmath.sty" 1480098837 306 0796eafca5e159e6ec2167a6d22d81b1 ""
  "/usr/share/texlive/texmf-dist/tex/latex/pgf/systemlayer/pgfsys.sty" 1480098837 443 0b2e781830192df35c0fd357cf13e26e ""
  "/usr/share/texlive/texmf-dist/tex/latex/pgf/utilities/pgfcalendar.sty" 1480098837 303 c69ee75283ad9d594be39020e0cc2fa3 ""
  "/usr/share/texlive/texmf-dist/tex/latex/pgf/utilities/pgffor.sty" 1480098837 348 8927fde343487e003b01a4c2ca34073b ""
  "/usr/share/texlive/texmf-dist/tex/latex/pgf/utilities/pgfkeys.sty" 1480098837 274 4cad6e665cc93ac2ac979039a94fa1e1 ""
  "/usr/share/texlive/texmf-dist/tex/latex/pgf/utilities/pgfrcs.sty" 1480098837 325 2bcd023400636339210573e2b3ee298b ""
  "/usr/share/texlive/texmf-dist/tex/latex/pgfopts/pgfopts.sty" 1480098837 5540 d5c60cf09c59da351aa4023ed084e4eb ""
  "/usr/share/texlive/texmf-dist/tex/latex/pgfplots/pgfplots.sty" 1496704190 4904 ee78b44e85d6fccf08cd99370557481e ""
  "/usr/share/texlive/texmf-dist/tex/latex/sidecap/sidecap.sty" 1480098838 10526 e4fd75d883a0e21600bac6a209f020eb ""
  "/usr/share/texlive/texmf-dist/tex/latex/siunitx/siunitx-abbreviations.cfg" 1511738808 4669 0666eeed90b2307794a8c5f94440e058 ""
  "/usr/share/texlive/texmf-dist/tex/latex/siunitx/siunitx.sty" 1511738808 278830 8a6edd37cf149567964ca1ef50e6bd06 ""
  "/usr/share/texlive/texmf-dist/tex/latex/subfig/subfig.sty" 1480098839 21369 9ef165ca6df8815c92e693146a376c92 ""
  "/usr/share/texlive/texmf-dist/tex/latex/tools/calc.sty" 1480098841 10214 d03d065f799d54f6b7e9b175f8d84279 ""
  "/usr/share/texlive/texmf-dist/tex/latex/tools/multicol.sty" 1492297155 30180 4d723b83c66873ba53f72c4a8730d6d3 ""
  "/usr/share/texlive/texmf-dist/tex/latex/tracklang/tracklang.sty" 1519255948 8454 68619e2e75cb56dcc8c3c62bbd89ae4e ""
  "/usr/share/texlive/texmf-dist/tex/latex/translator/translator-basic-dictionary-English.dict" 1512078926 3435 0a4d096dde3f8fe682c2aedd33b8137d ""
  "/usr/share/texlive/texmf-dist/tex/latex/translator/translator.sty" 1515274380 8690 269ca424c32d015df5d558ef9752619d ""
  "/usr/share/texlive/texmf-dist/tex/latex/trimspaces/trimspaces.sty" 1480098841 1380 971a51b00a14503ddf754cab24c3f209 ""
  "/usr/share/texlive/texmf-dist/tex/latex/url/url.sty" 1480098842 12796 8edb7d69a20b857904dd0ea757c14ec9 ""
  "/usr/share/texlive/texmf-dist/tex/latex/xcolor/xcolor.sty" 1480098843 55589 34128738f682d033422ca125f82e5d62 ""
  "/usr/share/texlive/texmf-dist/tex/latex/xkeyval/xkeyval.sty" 1480098843 4962 9c1069474ff71dbc47d5006555e352d3 ""
  "/usr/share/texlive/texmf-dist/tex/plain/ifetex/ifetex.tex" 1480098846 1166 4b66ad073c6073cb1bde651c18b7dbb2 ""
  "/usr/share/texlive/texmf-dist/web2c/texmf.cnf" 1520210507 32485 c64754543d8ac501bea6e75e209ea521 ""
  "/usr/share/texmf/fonts/enc/dvips/cm-super/cm-super-t1.enc" 1497858081 2971 def0b6c1f0b107b3b936def894055589 ""
  "/usr/share/texmf/fonts/enc/dvips/tex-gyre/q-ec.enc" 1254269485 2458 3b98c7cf30777b7803f362f19b1b8e68 ""
  "/usr/share/texmf/fonts/tfm/public/tex-gyre/ec-qagr.tfm" 1204998285 11040 38bfb4e17010d846d3f118e18cc7a5eb ""
  "/usr/share/texmf/fonts/type1/public/cm-super/sftt0900.pfb" 1591277545 170827 2e4b634de7b58578eae1dc93e51dfe48 ""
  "/usr/share/texmf/fonts/type1/public/cm-super/sftt1095.pfb" 1591277545 169670 48d12e69c9a3b23c81f6d703ccbd4554 ""
  "/usr/share/texmf/fonts/type1/public/cm-super/sftt1200.pfb" 1591277545 167085 68de377d2744a68a88fa40a1f610615a ""
  "/usr/share/texmf/fonts/type1/public/tex-gyre/qagr.pfb" 1254269485 108228 6687c9c64a1489d7cd624c92f5a815c0 ""
  "/usr/share/texmf/tex/latex/tex-gyre/t1qag.fd" 1254269485 1642 7286e0350ef6ff0a6f0254f8254a3851 ""
  "/usr/share/texmf/web2c/texmf.cnf" 1520210507 32485 c64754543d8ac501bea6e75e209ea521 ""
  "/var/lib/texmf/fonts/map/pdftex/updmap/pdftex.map" 1591277573 2700761 ac0584cc9514ab21918550a6948c4ee2 ""
  "/var/lib/texmf/web2c/pdftex/pdflatex.fmt" 1591277592 4130094 95569c3b3b79169fe93a199d4973c9aa ""
  "apendices/A_ejemplo.tex" 1566457324 187 1e946a207f6e89e27dc52d34c8f7ea9a ""
  "apendices/B_archivo.tex" 1566457324 418 31bc703843e1a2a03a7b01079ab9f1f9 ""
  "apendices/LF353.pdf" 1566457324 549535 c20be6aa93fc165993052cdc0636da7c ""
  "apendices/reglamento.tex" 1566457324 14596 465e95e37471ce0c8bcd786de2711a44 ""
  "apendices/rubrica.tex" 1566457324 2302 abfbb91d69ba236e44891652363f9443 ""
  "codigo/codigoejemplo.m" 1566457324 340 70c60e005686c55f089063b78903751c ""
  "configuracion.tex" 1566457324 1853 6556c93c2a25df9c2f4665392adbf49d ""
  "contenido/1_introduccion.tex" 1598475984 19580 b9b5e7644ab4d980b1c663ed4eda7917 ""
  "contenido/2_marco_teorico.tex" 1566457324 9930 936f89fc8bf99b5e9fe5fe643c97443c ""
  "contenido/3_desarrollo.tex" 1566457324 5794 3c5ba6e9a2b15a1e217cffd9e6f2310f ""
  "contenido/4_sobre_LaTeX.tex" 1566457324 42700 03f82e1830fe2a4b59c9e4144a67f3e8 ""
  "contenido/5_conclusiones.tex" 1566457324 815 6d417c9b368a2b7d80a113fd652f7206 ""
  "contenido/abstract.tex" 1566457324 2152 e9baf670a717913676860a27aec07e27 ""
  "contenido/nomenclatura.tex" 1566457324 1944 bc320e69cca6535b7e97d3ad1554db23 ""
  "contenido/reconocimientos.tex" 1566457324 326 bcebd8c8479540fd3d0055b180351eda ""
  "contenido/resumen.tex" 1566457324 1766 044fb2738c7f50ef4f5f849f8d23a945 ""
  "imagenes/acondicionamiento.tikz" 1566457324 1128 cc80feb7272e307bcea915dec79a19e4 ""
  "imagenes/circuitobasico.tikz" 1566457324 252 856a581f4d6f15ce50aa9a1ca1008f92 ""
  "imagenes/fotoconductor.jpg" 1566457324 9643 e2b317f7acbe2ed62bf4e135e285999f ""
  "imagenes/integrado.jpg" 1566457324 82148 2880f4d718363dfaf83740131368516f ""
  "imagenes/led.jpg" 1566457324 24533 077b190a741b2da44e1828f1f649018a ""
  "imagenes/protecciontermica.tikz" 1566457324 1230 d9c5173f1822f1b0c8aa9de88e96bff8 ""
  "imagenes/reguladorlineal.tikz" 1566457324 796 4f4e74bf77c64799f315fe2e3bae837d ""
  "imagenes/tormenta.png" 1566457324 46258 196d91b53a7c562ea105a1e91392b80c ""
  "imagenes/transistor.jpg" 1566457324 15847 68002a3befeb63757a39d7acaf6f556e ""
  "imagenes/transmisionpotencia.tikz" 1566457324 709 813d7d2905cfd95faf51309a50d93558 ""
  "otros/profesores.tex" 1566457324 1607 ce682d005d94c87b4841d2561d446cbd ""
  "otros/titulo.tex" 1566457324 3615 0cbb0b76c5934515e4e82b6aaf757f19 ""
  "proyecto.aux" 1598476233 27840 cba012a2fb8064b888f811e5dd232d41 ""
  "proyecto.bbl" 1598476068 2697 4369d6390338824adae6f0d68e5970ae "bibtex proyecto"
  "proyecto.lof" 1598476233 2191 4accc39771404baf7a5b423b4f07db60 ""
  "proyecto.lot" 1598476233 1392 c96234366fd544e20c81b6285736da4b ""
  "proyecto.lox" 1598476233 294 0c340e2b68f66a0d81bfea305fc75a86 ""
  "proyecto.nls" 0 -1 0 ""
  "proyecto.out" 1598476233 5554 393b52ec12ab972912014a97690324b2 ""
  "proyecto.tex" 1598476242 2862 321cbf3f253c03b00c2ec51689cc834d ""
  "proyecto.toc" 1598476233 8365 53678ea6e2542509799faf9b8851bf11 ""
  "proyectoelectrico.cls" 1566457324 10203 1584f44245168126af6d846e4c41e3cb ""
  (generated)
  "proyecto.aux"
  "proyecto.lot"
  "proyecto.out"
  "proyecto.lof"
  "proyecto.pdf"
  "proyecto.nlo"
  "proyecto.toc"
  "proyecto.log"
  "proyecto.lox"
